{"name":"getUsersFailed","id":"Serenitytest:getUsersFailed","testCaseName":"Serenitytest","testSteps":[{"number":1,"description":"Fiorella the trainer executes a GET on the resource api/users?page\u003d2","duration":2739,"startTime":"2023-09-20T15:17:43.276-05:00[America/Bogota]","result":"SUCCESS","precondition":false,"level":0,"children":[{"number":2,"description":"GET https://reqres.in/api/users?page\u003d2\r","duration":2,"startTime":"2023-09-20T15:17:46.010-05:00[America/Bogota]","result":"SUCCESS","restQuery":{"method":"GET","path":"https://reqres.in/api/users?page\u003d2\r","content":"\r","contentType":"null","requestHeaders":"Accept\u003d*/*\r","requestCookies":"\r","responseHeaders":"Date: Wed, 20 Sep 2023 20:17:46 GMT\r\nContent-Type: application/json; charset\u003dutf-8\r\nTransfer-Encoding: chunked\r\nConnection: keep-alive\r\nX-Powered-By: Express\r\nAccess-Control-Allow-Origin: *\r\nEtag: W/\"406-ut0vzoCuidvyMf8arZpMpJ6ZRDw\"\r\nVia: 1.1 vegur\r\nCache-Control: max-age\u003d14400\r\nCF-Cache-Status: HIT\r\nAge: 6341\r\nReport-To: {\"endpoints\":[{\"url\":\"https:\\/\\/a.nel.cloudflare.com\\/report\\/v3?s\u003d2426qQMv1FiiM7kfUAQWWpWyaWblbSYC5YmLpqqKdR4ZlYoUXxxBrwGTlEkL1c3VLSNHcbvHfL9wyFI9nIkY4nLxfIv0RKhjg8dSDAFmP5GbHwG7%2FXzPWu2%2Blg%3D%3D\"}],\"group\":\"cf-nel\",\"max_age\":604800}\r\nNEL: {\"success_fraction\":0,\"report_to\":\"cf-nel\",\"max_age\":604800}\r\nVary: Accept-Encoding\r\nServer: cloudflare\r\nCF-RAY: 809cc0fbedb83dd3-MIA\r\nContent-Encoding: gzip\r","responseCookies":"\r","responseBody":"{\n    \"page\": 2,\n    \"per_page\": 6,\n    \"total\": 12,\n    \"total_pages\": 2,\n    \"data\": [\n        {\n            \"id\": 7,\n            \"email\": \"michael.lawson@reqres.in\",\n            \"first_name\": \"Michael\",\n            \"last_name\": \"Lawson\",\n            \"avatar\": \"https://reqres.in/img/faces/7-image.jpg\"\n        },\n        {\n            \"id\": 8,\n            \"email\": \"lindsay.ferguson@reqres.in\",\n            \"first_name\": \"Lindsay\",\n            \"last_name\": \"Ferguson\",\n            \"avatar\": \"https://reqres.in/img/faces/8-image.jpg\"\n        },\n        {\n            \"id\": 9,\n            \"email\": \"tobias.funke@reqres.in\",\n            \"first_name\": \"Tobias\",\n            \"last_name\": \"Funke\",\n            \"avatar\": \"https://reqres.in/img/faces/9-image.jpg\"\n        },\n        {\n            \"id\": 10,\n            \"email\": \"byron.fields@reqres.in\",\n            \"first_name\": \"Byron\",\n            \"last_name\": \"Fields\",\n            \"avatar\": \"https://reqres.in/img/faces/10-image.jpg\"\n        },\n        {\n            \"id\": 11,\n            \"email\": \"george.edwards@reqres.in\",\n            \"first_name\": \"George\",\n            \"last_name\": \"Edwards\",\n            \"avatar\": \"https://reqres.in/img/faces/11-image.jpg\"\n        },\n        {\n            \"id\": 12,\n            \"email\": \"rachel.howell@reqres.in\",\n            \"first_name\": \"Rachel\",\n            \"last_name\": \"Howell\",\n            \"avatar\": \"https://reqres.in/img/faces/12-image.jpg\"\n        }\n    ],\n    \"support\": {\n        \"url\": \"https://reqres.in/#support-heading\",\n        \"text\": \"To keep ReqRes free, contributions towards server costs are appreciated!\"\n    }\n}","statusCode":200},"precondition":false,"level":1}]}],"userStory":{"id":"Serenitytest","storyName":"Serenitytest","storyClassName":"Serenitytest","path":"","type":"story"},"featureTag":{"name":"Serenitytest","type":"story","displayName":"Serenitytest"},"title":"Get users failed","tags":[{"name":"Serenitytest","type":"story","displayName":"Serenitytest"}],"startTime":"2023-09-20T15:17:42.968-05:00[America/Bogota]","duration":3105,"testFailureCause":{"errorType":"org.junit.ComparisonFailure","message":"expected:\u003c[4]00\u003e but was:\u003c[2]00\u003e","stackTrace":[{"declaringClass":"Serenitytest","methodName":"getUsersFailed","fileName":"Serenitytest.java","lineNumber":29}]},"testFailureClassname":"org.junit.ComparisonFailure","testFailureMessage":"expected:\u003c[4]00\u003e but was:\u003c[2]00\u003e","testFailureSummary":"FAILURE;org.junit.ComparisonFailure;expected:\u003c[4]00\u003e but was:\u003c[2]00\u003e;Serenitytest.java","projectKey":"","annotatedResult":"FAILURE","isManualTestingUpToDate":false,"manual":false,"testSource":"JUnit","actors":[{"name":"Fiorella the trainer","can":["call an API at https://reqres.in/"]}],"order":0,"result":"FAILURE"}